{
    "/js/app.js": "/js/app.js?id=49c0093dfd300f0e6c94",
    "/css/app.css": "/css/app.css?id=3fbf517e6f66b38a9534",
    "/js/bayi.js": "/js/bayi.js?id=9c4c0e21834381292cf0",
    "/js/gonderi.js": "/js/gonderi.js?id=637d1dfcdf149e3a8404"
}